1583743677 [09/03/2020 09:47:57 AM] tpch create tables
1583743677 [09/03/2020 09:47:57 AM] tpch load data
1583744519 [09/03/2020 10:01:59 AM] tpch create primary keys
1583744795 [09/03/2020 10:06:35 AM] tpch create indexes
1583746133 [09/03/2020 10:28:53 AM] tpch create foreign keys
1583746565 [09/03/2020 10:36:05 AM] vacuum analyze
1583746671 [09/03/2020 10:37:51 AM] checkpoint
