========== query 1 ==========
SET
                                                               QUERY PLAN                                                                
-----------------------------------------------------------------------------------------------------------------------------------------
 Limit  (cost=424738.89..424738.89 rows=1 width=236) (actual time=7365.041..7365.041 rows=1 loops=1)
   ->  Sort  (cost=424738.89..424738.90 rows=6 width=236) (actual time=7365.040..7365.040 rows=1 loops=1)
         Sort Key: l_returnflag, l_linestatus
         Sort Method: top-N heapsort  Memory: 25kB
         ->  HashAggregate  (cost=424738.69..424738.85 rows=6 width=236) (actual time=7365.002..7365.009 rows=4 loops=1)
               Group Key: l_returnflag, l_linestatus
               ->  Seq Scan on lineitem  (cost=0.00..187519.25 rows=5930486 width=25) (actual time=0.020..1061.881 rows=5930957 loops=1)
                     Filter: (l_shipdate <= '1998-09-10 00:00:00'::timestamp without time zone)
                     Rows Removed by Filter: 70258
 Planning time: 0.386 ms
 Execution time: 7365.118 ms
(11 rows)

========== query 2 ==========
SET
                                                                                       QUERY PLAN                                                                                        
-----------------------------------------------------------------------------------------------------------------------------------------------------------------------------------------
 Limit  (cost=77640.02..77640.03 rows=1 width=192) (actual time=279.145..279.156 rows=100 loops=1)
   ->  Sort  (cost=77640.02..77640.03 rows=1 width=192) (actual time=279.144..279.149 rows=100 loops=1)
         Sort Key: supplier.s_acctbal DESC, nation.n_name, supplier.s_name, part.p_partkey
         Sort Method: top-N heapsort  Memory: 68kB
         ->  Merge Join  (cost=35278.47..77640.01 rows=1 width=192) (actual time=169.552..278.713 rows=489 loops=1)
               Merge Cond: (part.p_partkey = partsupp.ps_partkey)
               Join Filter: (partsupp.ps_supplycost = (SubPlan 1))
               Rows Removed by Join Filter: 161
               ->  Index Scan using part_pkey on part  (cost=0.42..10304.42 rows=899 width=30) (actual time=0.015..49.309 rows=799 loops=1)
                     Filter: (((p_type)::text ~~ '%NICKEL'::text) AND (p_size = 16))
                     Rows Removed by Filter: 199201
               ->  Sort  (cost=35278.05..35678.05 rows=160000 width=172) (actual time=169.458..188.328 rows=162846 loops=1)
                     Sort Key: partsupp.ps_partkey
                     Sort Method: quicksort  Memory: 48579kB
                     ->  Nested Loop  (cost=1.99..21447.88 rows=160000 width=172) (actual time=0.034..104.232 rows=162880 loops=1)
                           ->  Nested Loop  (cost=1.56..480.32 rows=2000 width=166) (actual time=0.026..4.812 rows=2036 loops=1)
                                 Join Filter: (nation.n_regionkey = region.r_regionkey)
                                 Rows Removed by Join Filter: 7964
                                 ->  Seq Scan on region  (cost=0.00..1.06 rows=1 width=4) (actual time=0.003..0.004 rows=1 loops=1)
                                       Filter: (r_name = 'AMERICA'::bpchar)
                                       Rows Removed by Filter: 4
                                 ->  Hash Join  (cost=1.56..354.26 rows=10000 width=170) (actual time=0.023..4.059 rows=10000 loops=1)
                                       Hash Cond: (supplier.s_nationkey = nation.n_nationkey)
                                       ->  Seq Scan on supplier  (cost=0.00..322.00 rows=10000 width=144) (actual time=0.002..0.770 rows=10000 loops=1)
                                       ->  Hash  (cost=1.25..1.25 rows=25 width=34) (actual time=0.012..0.012 rows=25 loops=1)
                                             Buckets: 1024  Batches: 1  Memory Usage: 10kB
                                             ->  Seq Scan on nation  (cost=0.00..1.25 rows=25 width=34) (actual time=0.001..0.004 rows=25 loops=1)
                           ->  Index Scan using idx_partsupp_suppkey on partsupp  (cost=0.42..9.68 rows=80 width=14) (actual time=0.003..0.038 rows=80 loops=2036)
                                 Index Cond: (ps_suppkey = supplier.s_suppkey)
               SubPlan 1
                 ->  Aggregate  (cost=43.45..43.46 rows=1 width=32) (actual time=0.018..0.018 rows=1 loops=650)
                       ->  Nested Loop  (cost=0.85..43.45 rows=1 width=6) (actual time=0.010..0.017 rows=2 loops=650)
                             Join Filter: (nation_1.n_regionkey = region_1.r_regionkey)
                             Rows Removed by Join Filter: 2
                             ->  Seq Scan on region region_1  (cost=0.00..1.06 rows=1 width=4) (actual time=0.001..0.001 rows=1 loops=650)
                                   Filter: (r_name = 'AMERICA'::bpchar)
                                   Rows Removed by Filter: 4
                             ->  Nested Loop  (cost=0.85..42.33 rows=4 width=10) (actual time=0.006..0.015 rows=4 loops=650)
                                   ->  Nested Loop  (cost=0.71..41.71 rows=4 width=10) (actual time=0.005..0.011 rows=4 loops=650)
                                         ->  Index Scan using idx_partsupp_partkey on partsupp partsupp_1  (cost=0.42..8.50 rows=4 width=10) (actual time=0.003..0.004 rows=4 loops=650)
                                               Index Cond: (part.p_partkey = ps_partkey)
                                         ->  Index Scan using supplier_pkey on supplier supplier_1  (cost=0.29..8.30 rows=1 width=8) (actual time=0.001..0.001 rows=1 loops=2600)
                                               Index Cond: (s_suppkey = partsupp_1.ps_suppkey)
                                   ->  Index Scan using nation_pkey on nation nation_1  (cost=0.14..0.16 rows=1 width=8) (actual time=0.001..0.001 rows=1 loops=2600)
                                         Index Cond: (n_nationkey = supplier_1.s_nationkey)
 Planning time: 1.689 ms
 Execution time: 280.905 ms
(47 rows)

========== query 3 ==========
SET
                                                                       QUERY PLAN                                                                       
--------------------------------------------------------------------------------------------------------------------------------------------------------
 Limit  (cost=272604.28..272604.31 rows=10 width=44) (actual time=1556.585..1556.586 rows=10 loops=1)
   ->  Sort  (cost=272604.28..273389.17 rows=313957 width=44) (actual time=1556.584..1556.585 rows=10 loops=1)
         Sort Key: (sum((lineitem.l_extendedprice * ('1'::numeric - lineitem.l_discount)))) DESC, orders.o_orderdate
         Sort Method: top-N heapsort  Memory: 26kB
         ->  HashAggregate  (cost=261895.32..265819.78 rows=313957 width=44) (actual time=1549.445..1554.590 rows=11612 loops=1)
               Group Key: lineitem.l_orderkey, orders.o_orderdate, orders.o_shippriority
               ->  Hash Join  (cost=54410.96..257185.97 rows=313957 width=24) (actual time=320.146..1524.780 rows=30533 loops=1)
                     Hash Cond: (lineitem.l_orderkey = orders.o_orderkey)
                     ->  Seq Scan on lineitem  (cost=0.00..187519.25 rows=3230982 width=16) (actual time=0.015..900.969 rows=3261873 loops=1)
                           Filter: (l_shipdate > '1995-03-07'::date)
                           Rows Removed by Filter: 2739342
                     ->  Hash  (cost=52589.01..52589.01 rows=145756 width=12) (actual time=319.408..319.408 rows=146063 loops=1)
                           Buckets: 262144  Batches: 1  Memory Usage: 8325kB
                           ->  Hash Join  (cost=5836.00..52589.01 rows=145756 width=12) (actual time=24.945..292.895 rows=146063 loops=1)
                                 Hash Cond: (orders.o_custkey = customer.c_custkey)
                                 ->  Seq Scan on orders  (cost=0.00..44845.00 rows=726841 width=16) (actual time=0.004..171.290 rows=722275 loops=1)
                                       Filter: (o_orderdate < '1995-03-07'::date)
                                       Rows Removed by Filter: 777725
                                 ->  Hash  (cost=5460.00..5460.00 rows=30080 width=4) (actual time=24.861..24.861 rows=30142 loops=1)
                                       Buckets: 32768  Batches: 1  Memory Usage: 1316kB
                                       ->  Seq Scan on customer  (cost=0.00..5460.00 rows=30080 width=4) (actual time=0.004..21.297 rows=30142 loops=1)
                                             Filter: (c_mktsegment = 'BUILDING'::bpchar)
                                             Rows Removed by Filter: 119858
 Planning time: 0.785 ms
 Execution time: 1560.821 ms
(25 rows)

========== query 4 ==========
SET
                                                                           QUERY PLAN                                                                           
----------------------------------------------------------------------------------------------------------------------------------------------------------------
 Limit  (cost=113263.82..113285.40 rows=1 width=24) (actual time=202.957..202.957 rows=1 loops=1)
   ->  GroupAggregate  (cost=113263.82..113371.73 rows=5 width=24) (actual time=202.956..202.956 rows=1 loops=1)
         Group Key: orders.o_orderpriority
         ->  Sort  (cost=113263.82..113299.77 rows=14381 width=16) (actual time=201.415..201.830 rows=10479 loops=1)
               Sort Key: orders.o_orderpriority
               Sort Method: quicksort  Memory: 3946kB
               ->  Nested Loop Semi Join  (cost=1159.36..112270.67 rows=14381 width=16) (actual time=7.744..187.591 rows=51398 loops=1)
                     ->  Bitmap Heap Scan on orders  (cost=1158.93..28071.25 rows=54488 width=20) (actual time=7.726..39.606 rows=55973 loops=1)
                           Recheck Cond: ((o_orderdate >= '1993-12-01'::date) AND (o_orderdate < '1994-03-01 00:00:00'::timestamp without time zone))
                           Heap Blocks: exact=23118
                           ->  Bitmap Index Scan on idx_orders_orderdate  (cost=0.00..1145.31 rows=54488 width=0) (actual time=5.054..5.054 rows=55973 loops=1)
                                 Index Cond: ((o_orderdate >= '1993-12-01'::date) AND (o_orderdate < '1994-03-01 00:00:00'::timestamp without time zone))
                     ->  Index Scan using idx_lineitem_orderkey on lineitem  (cost=0.43..5.16 rows=5 width=4) (actual time=0.002..0.002 rows=1 loops=55973)
                           Index Cond: (l_orderkey = orders.o_orderkey)
                           Filter: (l_commitdate < l_receiptdate)
                           Rows Removed by Filter: 1
 Planning time: 0.589 ms
 Execution time: 203.198 ms
(18 rows)

========== query 5 ==========
SET
                                                                                         QUERY PLAN                                                                                         
--------------------------------------------------------------------------------------------------------------------------------------------------------------------------------------------
 Limit  (cost=182169.50..182169.50 rows=1 width=58) (actual time=344.625..344.625 rows=1 loops=1)
   ->  Sort  (cost=182169.50..182169.56 rows=25 width=58) (actual time=344.624..344.624 rows=1 loops=1)
         Sort Key: (sum((lineitem.l_extendedprice * ('1'::numeric - lineitem.l_discount)))) DESC
         Sort Method: top-N heapsort  Memory: 25kB
         ->  GroupAggregate  (cost=182079.52..182169.37 rows=25 width=58) (actual time=342.122..344.604 rows=5 loops=1)
               Group Key: nation.n_name
               ->  Sort  (cost=182079.52..182097.43 rows=7163 width=38) (actual time=341.503..341.803 rows=7540 loops=1)
                     Sort Key: nation.n_name
                     Sort Method: quicksort  Memory: 782kB
                     ->  Hash Join  (cost=9197.14..181620.86 rows=7163 width=38) (actual time=45.830..338.467 rows=7540 loops=1)
                           Hash Cond: ((lineitem.l_suppkey = supplier.s_suppkey) AND (customer.c_nationkey = supplier.s_nationkey))
                           ->  Nested Loop  (cost=8725.14..180208.74 rows=179069 width=50) (actual time=43.259..310.797 rows=182435 loops=1)
                                 ->  Hash Join  (cost=8724.70..39463.31 rows=44758 width=38) (actual time=43.247..148.990 rows=45297 loops=1)
                                       Hash Cond: (orders.o_custkey = customer.c_custkey)
                                       ->  Bitmap Heap Scan on orders  (cost=4754.25..34206.07 rows=223788 width=8) (actual time=19.179..77.134 rows=226645 loops=1)
                                             Recheck Cond: ((o_orderdate >= '1993-01-01'::date) AND (o_orderdate < '1994-01-01 00:00:00'::timestamp without time zone))
                                             Heap Blocks: exact=26095
                                             ->  Bitmap Index Scan on idx_orders_orderdate  (cost=0.00..4698.31 rows=223788 width=0) (actual time=16.173..16.173 rows=226645 loops=1)
                                                   Index Cond: ((o_orderdate >= '1993-01-01'::date) AND (o_orderdate < '1994-01-01 00:00:00'::timestamp without time zone))
                                       ->  Hash  (cost=3595.45..3595.45 rows=30000 width=38) (actual time=23.987..23.987 rows=29952 loops=1)
                                             Buckets: 32768  Batches: 1  Memory Usage: 2362kB
                                             ->  Nested Loop  (cost=92.02..3595.45 rows=30000 width=38) (actual time=0.780..19.737 rows=29952 loops=1)
                                                   ->  Nested Loop  (cost=0.14..13.95 rows=5 width=30) (actual time=0.014..0.029 rows=5 loops=1)
                                                         Join Filter: (nation.n_regionkey = region.r_regionkey)
                                                         Rows Removed by Join Filter: 20
                                                         ->  Index Scan using nation_pkey on nation  (cost=0.14..12.51 rows=25 width=34) (actual time=0.005..0.011 rows=25 loops=1)
                                                         ->  Materialize  (cost=0.00..1.07 rows=1 width=4) (actual time=0.000..0.000 rows=1 loops=25)
                                                               ->  Seq Scan on region  (cost=0.00..1.06 rows=1 width=4) (actual time=0.003..0.004 rows=1 loops=1)
                                                                     Filter: (r_name = 'AMERICA'::bpchar)
                                                                     Rows Removed by Filter: 4
                                                   ->  Bitmap Heap Scan on customer  (cost=91.88..656.30 rows=6000 width=8) (actual time=0.717..3.222 rows=5990 loops=5)
                                                         Recheck Cond: (c_nationkey = nation.n_nationkey)
                                                         Heap Blocks: exact=14636
                                                         ->  Bitmap Index Scan on idx_customer_nationkey  (cost=0.00..90.38 rows=6000 width=0) (actual time=0.450..0.450 rows=5990 loops=5)
                                                               Index Cond: (c_nationkey = nation.n_nationkey)
                                 ->  Index Scan using idx_lineitem_orderkey on lineitem  (cost=0.43..2.99 rows=15 width=20) (actual time=0.002..0.003 rows=4 loops=45297)
                                       Index Cond: (l_orderkey = orders.o_orderkey)
                           ->  Hash  (cost=322.00..322.00 rows=10000 width=8) (actual time=2.513..2.513 rows=10000 loops=1)
                                 Buckets: 16384  Batches: 1  Memory Usage: 519kB
                                 ->  Seq Scan on supplier  (cost=0.00..322.00 rows=10000 width=8) (actual time=0.003..1.340 rows=10000 loops=1)
 Planning time: 2.695 ms
 Execution time: 344.818 ms
(42 rows)

========== query 6 ==========
SET
                                                                                                          QUERY PLAN                                                                                                           
-------------------------------------------------------------------------------------------------------------------------------------------------------------------------------------------------------------------------------
 Limit  (cost=150760.50..150760.51 rows=1 width=32) (actual time=215.975..215.975 rows=1 loops=1)
   ->  Aggregate  (cost=150760.50..150760.51 rows=1 width=32) (actual time=215.974..215.974 rows=1 loops=1)
         ->  Bitmap Heap Scan on lineitem  (cost=30120.88..150156.06 rows=120887 width=12) (actual time=104.410..181.605 rows=119208 loops=1)
               Recheck Cond: ((l_shipdate >= '1993-01-01'::date) AND (l_shipdate < '1994-01-01 00:00:00'::timestamp without time zone) AND (l_discount >= 0.06) AND (l_discount <= 0.08) AND (l_quantity < '25'::numeric))
               Heap Blocks: exact=66146
               ->  Bitmap Index Scan on idx_lineitem_shipdate  (cost=0.00..30090.66 rows=120887 width=0) (actual time=94.689..94.690 rows=119208 loops=1)
                     Index Cond: ((l_shipdate >= '1993-01-01'::date) AND (l_shipdate < '1994-01-01 00:00:00'::timestamp without time zone) AND (l_discount >= 0.06) AND (l_discount <= 0.08) AND (l_quantity < '25'::numeric))
 Planning time: 0.333 ms
 Execution time: 216.227 ms
(9 rows)

========== query 7 ==========
SET
                                                                                 QUERY PLAN                                                                                  
-----------------------------------------------------------------------------------------------------------------------------------------------------------------------------
 Limit  (cost=167196.61..167196.64 rows=1 width=92) (actual time=649.823..649.823 rows=1 loops=1)
   ->  GroupAggregate  (cost=167196.61..167412.28 rows=6162 width=92) (actual time=649.822..649.822 rows=1 loops=1)
         Group Key: n1.n_name, n2.n_name, (date_part('year'::text, (lineitem.l_shipdate)::timestamp without time zone))
         ->  Sort  (cost=167196.61..167212.01 rows=6162 width=72) (actual time=649.105..649.162 rows=1359 loops=1)
               Sort Key: n1.n_name, n2.n_name, (date_part('year'::text, (lineitem.l_shipdate)::timestamp without time zone))
               Sort Method: quicksort  Memory: 998kB
               ->  Hash Join  (cost=366.36..166808.74 rows=6162 width=72) (actual time=2.204..645.527 rows=5729 loops=1)
                     Hash Cond: (lineitem.l_suppkey = supplier.s_suppkey)
                     Join Filter: (((n1.n_name = 'PERU'::bpchar) AND (n2.n_name = 'MOROCCO'::bpchar)) OR ((n1.n_name = 'MOROCCO'::bpchar) AND (n2.n_name = 'PERU'::bpchar)))
                     Rows Removed by Join Filter: 5827
                     ->  Nested Loop  (cost=2.26..165621.62 rows=148076 width=46) (actual time=0.074..622.656 rows=145103 loops=1)
                           ->  Nested Loop  (cost=1.83..25954.42 rows=120000 width=30) (actual time=0.036..149.682 rows=118477 loops=1)
                                 ->  Hash Join  (cost=1.40..5546.90 rows=12000 width=30) (actual time=0.027..32.189 rows=11896 loops=1)
                                       Hash Cond: (customer.c_nationkey = n2.n_nationkey)
                                       ->  Seq Scan on customer  (cost=0.00..5085.00 rows=150000 width=8) (actual time=0.004..10.672 rows=150000 loops=1)
                                       ->  Hash  (cost=1.38..1.38 rows=2 width=30) (actual time=0.012..0.012 rows=2 loops=1)
                                             Buckets: 1024  Batches: 1  Memory Usage: 9kB
                                             ->  Seq Scan on nation n2  (cost=0.00..1.38 rows=2 width=30) (actual time=0.006..0.008 rows=2 loops=1)
                                                   Filter: ((n_name = 'MOROCCO'::bpchar) OR (n_name = 'PERU'::bpchar))
                                                   Rows Removed by Filter: 23
                                 ->  Index Scan using idx_orders_custkey on orders  (cost=0.43..1.53 rows=17 width=8) (actual time=0.002..0.009 rows=10 loops=11896)
                                       Index Cond: (o_custkey = customer.c_custkey)
                           ->  Index Scan using idx_lineitem_orderkey on lineitem  (cost=0.43..1.11 rows=5 width=24) (actual time=0.003..0.004 rows=1 loops=118477)
                                 Index Cond: (l_orderkey = orders.o_orderkey)
                                 Filter: ((l_shipdate >= '1995-01-01'::date) AND (l_shipdate <= '1996-12-31'::date))
                                 Rows Removed by Filter: 3
                     ->  Hash  (cost=354.10..354.10 rows=800 width=30) (actual time=1.979..1.979 rows=794 loops=1)
                           Buckets: 1024  Batches: 1  Memory Usage: 57kB
                           ->  Hash Join  (cost=1.40..354.10 rows=800 width=30) (actual time=0.020..1.873 rows=794 loops=1)
                                 Hash Cond: (supplier.s_nationkey = n1.n_nationkey)
                                 ->  Seq Scan on supplier  (cost=0.00..322.00 rows=10000 width=8) (actual time=0.002..0.615 rows=10000 loops=1)
                                 ->  Hash  (cost=1.38..1.38 rows=2 width=30) (actual time=0.011..0.011 rows=2 loops=1)
                                       Buckets: 1024  Batches: 1  Memory Usage: 9kB
                                       ->  Seq Scan on nation n1  (cost=0.00..1.38 rows=2 width=30) (actual time=0.003..0.005 rows=2 loops=1)
                                             Filter: ((n_name = 'PERU'::bpchar) OR (n_name = 'MOROCCO'::bpchar))
                                             Rows Removed by Filter: 23
 Planning time: 2.063 ms
 Execution time: 649.986 ms
(38 rows)

========== query 8 ==========
SET
                                                                                          QUERY PLAN                                                                                           
-----------------------------------------------------------------------------------------------------------------------------------------------------------------------------------------------
 Limit  (cost=182140.84..182140.88 rows=1 width=40) (actual time=223.428..223.428 rows=1 loops=1)
   ->  GroupAggregate  (cost=182140.84..182249.09 rows=2405 width=40) (actual time=223.427..223.427 rows=1 loops=1)
         Group Key: (date_part('year'::text, (orders.o_orderdate)::timestamp without time zone))
         ->  Sort  (cost=182140.84..182146.85 rows=2406 width=46) (actual time=222.837..222.892 rows=1235 loops=1)
               Sort Key: (date_part('year'::text, (orders.o_orderdate)::timestamp without time zone))
               Sort Method: quicksort  Memory: 291kB
               ->  Hash Join  (cost=452.35..182005.71 rows=2406 width=46) (actual time=2.672..221.906 rows=2485 loops=1)
                     Hash Cond: (customer.c_nationkey = n1.n_nationkey)
                     ->  Hash Join  (cost=449.84..181921.99 rows=12032 width=46) (actual time=2.535..219.847 rows=12097 loops=1)
                           Hash Cond: (supplier.s_nationkey = n2.n_nationkey)
                           ->  Nested Loop  (cost=448.28..181883.50 rows=12032 width=24) (actual time=2.519..216.520 rows=12097 loops=1)
                                 ->  Hash Join  (cost=447.86..176192.96 rows=12032 width=24) (actual time=2.509..184.191 rows=12097 loops=1)
                                       Hash Cond: (lineitem.l_suppkey = supplier.s_suppkey)
                                       ->  Nested Loop  (cost=0.86..175714.36 rows=12032 width=24) (actual time=0.054..177.440 rows=12097 loops=1)
                                             ->  Nested Loop  (cost=0.43..156909.38 rows=39999 width=20) (actual time=0.047..64.473 rows=39694 loops=1)
                                                   ->  Seq Scan on part  (cost=0.00..6597.00 rows=1333 width=4) (actual time=0.038..23.084 rows=1320 loops=1)
                                                         Filter: ((p_type)::text = 'LARGE POLISHED BRASS'::text)
                                                         Rows Removed by Filter: 198680
                                                   ->  Index Scan using idx_lineitem_part_supp on lineitem  (cost=0.43..112.44 rows=32 width=24) (actual time=0.003..0.027 rows=30 loops=1320)
                                                         Index Cond: (l_partkey = part.p_partkey)
                                             ->  Index Scan using orders_pkey on orders  (cost=0.43..0.47 rows=1 width=12) (actual time=0.003..0.003 rows=0 loops=39694)
                                                   Index Cond: (o_orderkey = lineitem.l_orderkey)
                                                   Filter: ((o_orderdate >= '1995-01-01'::date) AND (o_orderdate <= '1996-12-31'::date))
                                                   Rows Removed by Filter: 1
                                       ->  Hash  (cost=322.00..322.00 rows=10000 width=8) (actual time=2.416..2.416 rows=10000 loops=1)
                                             Buckets: 16384  Batches: 1  Memory Usage: 519kB
                                             ->  Seq Scan on supplier  (cost=0.00..322.00 rows=10000 width=8) (actual time=0.002..1.355 rows=10000 loops=1)
                                 ->  Index Scan using customer_pkey on customer  (cost=0.42..0.47 rows=1 width=8) (actual time=0.002..0.002 rows=1 loops=12097)
                                       Index Cond: (c_custkey = orders.o_custkey)
                           ->  Hash  (cost=1.25..1.25 rows=25 width=30) (actual time=0.011..0.011 rows=25 loops=1)
                                 Buckets: 1024  Batches: 1  Memory Usage: 10kB
                                 ->  Seq Scan on nation n2  (cost=0.00..1.25 rows=25 width=30) (actual time=0.001..0.003 rows=25 loops=1)
                     ->  Hash  (cost=2.45..2.45 rows=5 width=4) (actual time=0.023..0.023 rows=5 loops=1)
                           Buckets: 1024  Batches: 1  Memory Usage: 9kB
                           ->  Hash Join  (cost=1.07..2.45 rows=5 width=4) (actual time=0.017..0.021 rows=5 loops=1)
                                 Hash Cond: (n1.n_regionkey = region.r_regionkey)
                                 ->  Seq Scan on nation n1  (cost=0.00..1.25 rows=25 width=8) (actual time=0.003..0.004 rows=25 loops=1)
                                 ->  Hash  (cost=1.06..1.06 rows=1 width=4) (actual time=0.006..0.006 rows=1 loops=1)
                                       Buckets: 1024  Batches: 1  Memory Usage: 9kB
                                       ->  Seq Scan on region  (cost=0.00..1.06 rows=1 width=4) (actual time=0.003..0.003 rows=1 loops=1)
                                             Filter: (r_name = 'AMERICA'::bpchar)
                                             Rows Removed by Filter: 4
 Planning time: 2.976 ms
 Execution time: 223.568 ms
(44 rows)

========== query 9 ==========
SET
                                                                                QUERY PLAN                                                                                
--------------------------------------------------------------------------------------------------------------------------------------------------------------------------
 Limit  (cost=165276.94..165276.94 rows=1 width=66) (actual time=2115.659..2115.659 rows=1 loops=1)
   ->  Sort  (cost=165276.94..165427.25 rows=60125 width=66) (actual time=2115.658..2115.658 rows=1 loops=1)
         Sort Key: nation.n_name, (date_part('year'::text, (orders.o_orderdate)::timestamp without time zone)) DESC
         Sort Method: top-N heapsort  Memory: 25kB
         ->  HashAggregate  (cost=163924.13..164976.31 rows=60125 width=66) (actual time=2115.150..2115.572 rows=175 loops=1)
               Group Key: nation.n_name, date_part('year'::text, (orders.o_orderdate)::timestamp without time zone)
               ->  Hash Join  (cost=72877.26..158619.95 rows=303096 width=57) (actual time=569.375..1807.093 rows=325928 loops=1)
                     Hash Cond: (supplier.s_nationkey = nation.n_nationkey)
                     ->  Hash Join  (cost=72875.70..156172.40 rows=303096 width=31) (actual time=569.343..1694.600 rows=325928 loops=1)
                           Hash Cond: (lineitem.l_orderkey = orders.o_orderkey)
                           ->  Nested Loop  (cost=7170.69..79667.77 rows=303096 width=31) (actual time=59.008..904.915 rows=325928 loops=1)
                                 Join Filter: (supplier.s_suppkey = lineitem.l_suppkey)
                                 ->  Hash Join  (cost=7170.26..34827.41 rows=40404 width=26) (actual time=58.980..265.457 rows=43520 loops=1)
                                       Hash Cond: (partsupp.ps_suppkey = supplier.s_suppkey)
                                       ->  Hash Join  (cost=6723.26..34274.31 rows=40404 width=18) (actual time=55.608..245.321 rows=43520 loops=1)
                                             Hash Cond: (partsupp.ps_partkey = part.p_partkey)
                                             ->  Seq Scan on partsupp  (cost=0.00..25451.00 rows=800000 width=14) (actual time=0.003..101.291 rows=800000 loops=1)
                                             ->  Hash  (cost=6597.00..6597.00 rows=10101 width=4) (actual time=55.540..55.540 rows=10880 loops=1)
                                                   Buckets: 16384  Batches: 1  Memory Usage: 511kB
                                                   ->  Seq Scan on part  (cost=0.00..6597.00 rows=10101 width=4) (actual time=0.008..53.594 rows=10880 loops=1)
                                                         Filter: ((p_name)::text ~~ '%navy%'::text)
                                                         Rows Removed by Filter: 189120
                                       ->  Hash  (cost=322.00..322.00 rows=10000 width=8) (actual time=3.327..3.327 rows=10000 loops=1)
                                             Buckets: 16384  Batches: 1  Memory Usage: 519kB
                                             ->  Seq Scan on supplier  (cost=0.00..322.00 rows=10000 width=8) (actual time=0.002..2.217 rows=10000 loops=1)
                                 ->  Index Scan using idx_lineitem_part_supp on lineitem  (cost=0.43..1.10 rows=1 width=29) (actual time=0.003..0.013 rows=7 loops=43520)
                                       Index Cond: ((l_partkey = partsupp.ps_partkey) AND (l_suppkey = partsupp.ps_suppkey))
                           ->  Hash  (cost=41095.00..41095.00 rows=1500000 width=8) (actual time=505.712..505.712 rows=1500000 loops=1)
                                 Buckets: 2097152  Batches: 2  Memory Usage: 45682kB
                                 ->  Seq Scan on orders  (cost=0.00..41095.00 rows=1500000 width=8) (actual time=0.011..274.242 rows=1500000 loops=1)
                     ->  Hash  (cost=1.25..1.25 rows=25 width=30) (actual time=0.016..0.016 rows=25 loops=1)
                           Buckets: 1024  Batches: 1  Memory Usage: 10kB
                           ->  Seq Scan on nation  (cost=0.00..1.25 rows=25 width=30) (actual time=0.006..0.009 rows=25 loops=1)
 Planning time: 4.439 ms
 Execution time: 2116.891 ms
(35 rows)

========== query 10 ==========
SET
                                                                                    QUERY PLAN                                                                                    
----------------------------------------------------------------------------------------------------------------------------------------------------------------------------------
 Limit  (cost=230583.93..230583.98 rows=20 width=202) (actual time=1351.157..1351.160 rows=20 loops=1)
   ->  Sort  (cost=230583.93..230726.96 rows=57214 width=202) (actual time=1351.156..1351.157 rows=20 loops=1)
         Sort Key: (sum((lineitem.l_extendedprice * ('1'::numeric - lineitem.l_discount)))) DESC
         Sort Method: top-N heapsort  Memory: 33kB
         ->  HashAggregate  (cost=228346.31..229061.48 rows=57214 width=202) (actual time=1320.649..1340.848 rows=38076 loops=1)
               Group Key: customer.c_custkey, nation.n_name
               ->  Hash Join  (cost=35840.33..227631.13 rows=57214 width=182) (actual time=112.360..1223.358 rows=114347 loops=1)
                     Hash Cond: (customer.c_nationkey = nation.n_nationkey)
                     ->  Hash Join  (cost=35838.76..227453.92 rows=57214 width=160) (actual time=112.338..1197.289 rows=114347 loops=1)
                           Hash Cond: (orders.o_custkey = customer.c_custkey)
                           ->  Hash Join  (cost=28878.76..220343.73 rows=57214 width=16) (actual time=46.175..1089.418 rows=114347 loops=1)
                                 Hash Cond: (lineitem.l_orderkey = orders.o_orderkey)
                                 ->  Seq Scan on lineitem  (cost=0.00..187519.25 rows=1503126 width=16) (actual time=0.011..857.415 rows=1478870 loops=1)
                                       Filter: (l_returnflag = 'R'::bpchar)
                                       Rows Removed by Filter: 4522345
                                 ->  Hash  (cost=28165.08..28165.08 rows=57095 width=8) (actual time=45.934..45.934 rows=57111 loops=1)
                                       Buckets: 65536  Batches: 1  Memory Usage: 2743kB
                                       ->  Bitmap Heap Scan on orders  (cost=1213.65..28165.08 rows=57095 width=8) (actual time=7.883..38.585 rows=57111 loops=1)
                                             Recheck Cond: ((o_orderdate >= '1994-08-01'::date) AND (o_orderdate < '1994-11-01 00:00:00'::timestamp without time zone))
                                             Heap Blocks: exact=23306
                                             ->  Bitmap Index Scan on idx_orders_orderdate  (cost=0.00..1199.38 rows=57095 width=0) (actual time=5.212..5.212 rows=57111 loops=1)
                                                   Index Cond: ((o_orderdate >= '1994-08-01'::date) AND (o_orderdate < '1994-11-01 00:00:00'::timestamp without time zone))
                           ->  Hash  (cost=5085.00..5085.00 rows=150000 width=148) (actual time=65.612..65.613 rows=150000 loops=1)
                                 Buckets: 262144  Batches: 1  Memory Usage: 28861kB
                                 ->  Seq Scan on customer  (cost=0.00..5085.00 rows=150000 width=148) (actual time=0.003..24.781 rows=150000 loops=1)
                     ->  Hash  (cost=1.25..1.25 rows=25 width=30) (actual time=0.015..0.015 rows=25 loops=1)
                           Buckets: 1024  Batches: 1  Memory Usage: 10kB
                           ->  Seq Scan on nation  (cost=0.00..1.25 rows=25 width=30) (actual time=0.003..0.006 rows=25 loops=1)
 Planning time: 1.063 ms
 Execution time: 1352.502 ms
(30 rows)

========== query 11 ==========
SET
                                                                            QUERY PLAN                                                                             
-------------------------------------------------------------------------------------------------------------------------------------------------------------------
 Limit  (cost=10324.20..10324.20 rows=1 width=36) (actual time=88.323..88.323 rows=1 loops=1)
   InitPlan 1 (returns $2)
     ->  Aggregate  (cost=4682.09..4682.11 rows=1 width=32) (actual time=28.728..28.728 rows=1 loops=1)
           ->  Nested Loop  (cost=11.81..4442.09 rows=32000 width=10) (actual time=0.060..19.545 rows=32880 loops=1)
                 ->  Nested Loop  (cost=11.38..248.58 rows=400 width=4) (actual time=0.052..0.288 rows=411 loops=1)
                       ->  Seq Scan on nation nation_1  (cost=0.00..1.31 rows=1 width=4) (actual time=0.006..0.009 rows=1 loops=1)
                             Filter: (n_name = 'SAUDI ARABIA'::bpchar)
                             Rows Removed by Filter: 24
                       ->  Bitmap Heap Scan on supplier supplier_1  (cost=11.38..243.27 rows=400 width=8) (actual time=0.043..0.233 rows=411 loops=1)
                             Recheck Cond: (s_nationkey = nation_1.n_nationkey)
                             Heap Blocks: exact=182
                             ->  Bitmap Index Scan on idx_supplier_nation_key  (cost=0.00..11.29 rows=400 width=0) (actual time=0.028..0.028 rows=411 loops=1)
                                   Index Cond: (s_nationkey = nation_1.n_nationkey)
                 ->  Index Scan using idx_partsupp_suppkey on partsupp partsupp_1  (cost=0.42..9.68 rows=80 width=14) (actual time=0.003..0.038 rows=80 loops=411)
                       Index Cond: (ps_suppkey = supplier_1.s_suppkey)
   ->  Sort  (cost=5642.09..5722.09 rows=32000 width=36) (actual time=88.322..88.322 rows=1 loops=1)
         Sort Key: (sum((partsupp.ps_supplycost * (partsupp.ps_availqty)::numeric))) DESC
         Sort Method: top-N heapsort  Memory: 25kB
         ->  HashAggregate  (cost=5002.09..5482.09 rows=32000 width=36) (actual time=76.768..88.147 rows=839 loops=1)
               Group Key: partsupp.ps_partkey
               Filter: (sum((partsupp.ps_supplycost * (partsupp.ps_availqty)::numeric)) > $2)
               Rows Removed by Filter: 30007
               ->  Nested Loop  (cost=11.81..4442.09 rows=32000 width=14) (actual time=0.063..26.611 rows=32880 loops=1)
                     ->  Nested Loop  (cost=11.38..248.58 rows=400 width=4) (actual time=0.052..0.372 rows=411 loops=1)
                           ->  Seq Scan on nation  (cost=0.00..1.31 rows=1 width=4) (actual time=0.006..0.008 rows=1 loops=1)
                                 Filter: (n_name = 'SAUDI ARABIA'::bpchar)
                                 Rows Removed by Filter: 24
                           ->  Bitmap Heap Scan on supplier  (cost=11.38..243.27 rows=400 width=8) (actual time=0.045..0.310 rows=411 loops=1)
                                 Recheck Cond: (s_nationkey = nation.n_nationkey)
                                 Heap Blocks: exact=182
                                 ->  Bitmap Index Scan on idx_supplier_nation_key  (cost=0.00..11.29 rows=400 width=0) (actual time=0.027..0.027 rows=411 loops=1)
                                       Index Cond: (s_nationkey = nation.n_nationkey)
                     ->  Index Scan using idx_partsupp_suppkey on partsupp  (cost=0.42..9.68 rows=80 width=18) (actual time=0.004..0.054 rows=80 loops=411)
                           Index Cond: (ps_suppkey = supplier.s_suppkey)
 Planning time: 0.881 ms
 Execution time: 89.256 ms
(36 rows)

========== query 12 ==========
SET
                                                                                                                                    QUERY PLAN                                                                                                                                     
-----------------------------------------------------------------------------------------------------------------------------------------------------------------------------------------------------------------------------------------------------------------------------------
 Limit  (cost=321241.83..321327.34 rows=1 width=27) (actual time=1563.846..1563.846 rows=1 loops=1)
   ->  GroupAggregate  (cost=321241.83..321840.42 rows=7 width=27) (actual time=1563.845..1563.845 rows=1 loops=1)
         Group Key: lineitem.l_shipmode
         ->  Sort  (cost=321241.83..321316.64 rows=29926 width=27) (actual time=1559.465..1560.076 rows=15492 loops=1)
               Sort Key: lineitem.l_shipmode
               Sort Method: quicksort  Memory: 3187kB
               ->  Merge Join  (cost=249759.65..319016.96 rows=29926 width=27) (actual time=1250.263..1553.397 rows=30953 loops=1)
                     Merge Cond: (orders.o_orderkey = lineitem.l_orderkey)
                     ->  Index Scan using orders_pkey on orders  (cost=0.43..65062.43 rows=1500000 width=20) (actual time=0.005..204.466 rows=1499957 loops=1)
                     ->  Sort  (cost=249757.12..249831.93 rows=29926 width=15) (actual time=1250.236..1252.383 rows=30953 loops=1)
                           Sort Key: lineitem.l_orderkey
                           Sort Method: quicksort  Memory: 2219kB
                           ->  Seq Scan on lineitem  (cost=0.00..247532.25 rows=29926 width=15) (actual time=0.093..1242.673 rows=30953 loops=1)
                                 Filter: ((l_shipmode = ANY ('{SHIP,"REG AIR"}'::bpchar[])) AND (l_commitdate < l_receiptdate) AND (l_shipdate < l_commitdate) AND (l_receiptdate >= '1994-01-01'::date) AND (l_receiptdate < '1995-01-01 00:00:00'::timestamp without time zone))
                                 Rows Removed by Filter: 5970262
 Planning time: 0.561 ms
 Execution time: 1564.127 ms
(17 rows)

========== query 13 ==========
SET
                                                                                  QUERY PLAN                                                                                   
-------------------------------------------------------------------------------------------------------------------------------------------------------------------------------
 Limit  (cost=65470.72..65470.72 rows=1 width=16) (actual time=1385.506..1385.506 rows=1 loops=1)
   ->  Sort  (cost=65470.72..65471.22 rows=200 width=16) (actual time=1385.505..1385.505 rows=1 loops=1)
         Sort Key: (count(*)) DESC, (count(orders.o_orderkey)) DESC
         Sort Method: top-N heapsort  Memory: 25kB
         ->  HashAggregate  (cost=65467.72..65469.72 rows=200 width=16) (actual time=1385.469..1385.474 rows=42 loops=1)
               Group Key: count(orders.o_orderkey)
               ->  HashAggregate  (cost=61717.72..63217.72 rows=150000 width=12) (actual time=1338.626..1366.250 rows=150000 loops=1)
                     Group Key: customer.c_custkey
                     ->  Hash Right Join  (cost=5781.42..54444.81 rows=1454582 width=8) (actual time=30.664..955.773 rows=1533923 loops=1)
                           Hash Cond: (orders.o_custkey = customer.c_custkey)
                           ->  Seq Scan on orders  (cost=0.00..44845.00 rows=1454582 width=8) (actual time=0.010..507.137 rows=1483918 loops=1)
                                 Filter: ((o_comment)::text !~~ '%special%requests%'::text)
                                 Rows Removed by Filter: 16082
                           ->  Hash  (cost=3906.42..3906.42 rows=150000 width=4) (actual time=30.074..30.074 rows=150000 loops=1)
                                 Buckets: 262144  Batches: 1  Memory Usage: 7322kB
                                 ->  Index Only Scan using customer_pkey on customer  (cost=0.42..3906.42 rows=150000 width=4) (actual time=0.040..13.336 rows=150000 loops=1)
                                       Heap Fetches: 0
 Planning time: 0.549 ms
 Execution time: 1388.051 ms
(19 rows)

========== query 14 ==========
SET
                                                                        QUERY PLAN                                                                         
-----------------------------------------------------------------------------------------------------------------------------------------------------------
 Limit  (cost=121505.26..121505.27 rows=1 width=32) (actual time=188.158..188.158 rows=1 loops=1)
   ->  Aggregate  (cost=121505.26..121505.27 rows=1 width=32) (actual time=188.156..188.156 rows=1 loops=1)
         ->  Hash Join  (cost=10662.12..120097.26 rows=80457 width=33) (actual time=75.023..155.280 rows=77317 loops=1)
               Hash Cond: (lineitem.l_partkey = part.p_partkey)
               ->  Bitmap Heap Scan on lineitem  (cost=2065.12..111289.06 rows=80457 width=16) (actual time=13.628..64.653 rows=77317 loops=1)
                     Recheck Cond: ((l_shipdate >= '1994-05-01'::date) AND (l_shipdate < '1994-06-01 00:00:00'::timestamp without time zone))
                     Heap Blocks: exact=41727
                     ->  Bitmap Index Scan on idx_lineitem_shipdate  (cost=0.00..2045.00 rows=80457 width=0) (actual time=8.321..8.321 rows=77317 loops=1)
                           Index Cond: ((l_shipdate >= '1994-05-01'::date) AND (l_shipdate < '1994-06-01 00:00:00'::timestamp without time zone))
               ->  Hash  (cost=6097.00..6097.00 rows=200000 width=25) (actual time=60.822..60.823 rows=200000 loops=1)
                     Buckets: 262144  Batches: 1  Memory Usage: 13600kB
                     ->  Seq Scan on part  (cost=0.00..6097.00 rows=200000 width=25) (actual time=0.009..27.702 rows=200000 loops=1)
 Planning time: 0.526 ms
 Execution time: 188.474 ms
(14 rows)

========== query 15 ==========
SET
CREATE VIEW
                                                                                QUERY PLAN                                                                                 
---------------------------------------------------------------------------------------------------------------------------------------------------------------------------
 Limit  (cost=251199.14..251199.20 rows=1 width=103) (actual time=482.293..482.293 rows=1 loops=1)
   InitPlan 1 (returns $0)
     ->  Aggregate  (cost=124440.10..124440.11 rows=1 width=32) (actual time=229.084..229.084 rows=1 loops=1)
           ->  HashAggregate  (cost=124191.35..124315.72 rows=9950 width=36) (actual time=225.543..228.328 rows=10000 loops=1)
                 Group Key: lineitem_1.l_suppkey
                 ->  Bitmap Heap Scan on lineitem lineitem_1  (cost=5674.29..121980.76 rows=221059 width=16) (actual time=31.081..108.397 rows=225954 loops=1)
                       Recheck Cond: ((l_shipdate >= '1996-01-01'::date) AND (l_shipdate < '1996-04-01 00:00:00'::timestamp without time zone))
                       Heap Blocks: exact=66894
                       ->  Bitmap Index Scan on idx_lineitem_shipdate  (cost=0.00..5619.02 rows=221059 width=0) (actual time=21.433..21.433 rows=225954 loops=1)
                             Index Cond: ((l_shipdate >= '1996-01-01'::date) AND (l_shipdate < '1996-04-01 00:00:00'::timestamp without time zone))
   ->  Merge Join  (cost=126759.03..127428.43 rows=9950 width=103) (actual time=482.292..482.292 rows=1 loops=1)
         Merge Cond: (supplier.s_suppkey = revenue0.supplier_no)
         ->  Index Scan using supplier_pkey on supplier  (cost=0.29..495.43 rows=10000 width=71) (actual time=0.008..1.217 rows=8449 loops=1)
         ->  Sort  (cost=126758.74..126783.62 rows=9950 width=36) (actual time=480.578..480.578 rows=1 loops=1)
               Sort Key: revenue0.supplier_no
               Sort Method: quicksort  Memory: 25kB
               ->  Subquery Scan on revenue0  (cost=125849.29..126098.04 rows=9950 width=36) (actual time=477.932..480.568 rows=1 loops=1)
                     ->  HashAggregate  (cost=125849.29..125998.54 rows=9950 width=36) (actual time=477.931..480.567 rows=1 loops=1)
                           Group Key: lineitem.l_suppkey
                           Filter: (sum((lineitem.l_extendedprice * ('1'::numeric - lineitem.l_discount))) = $0)
                           Rows Removed by Filter: 9999
                           ->  Bitmap Heap Scan on lineitem  (cost=5674.29..121980.76 rows=221059 width=16) (actual time=31.615..126.631 rows=225954 loops=1)
                                 Recheck Cond: ((l_shipdate >= '1996-01-01'::date) AND (l_shipdate < '1996-04-01 00:00:00'::timestamp without time zone))
                                 Heap Blocks: exact=66894
                                 ->  Bitmap Index Scan on idx_lineitem_shipdate  (cost=0.00..5619.02 rows=221059 width=0) (actual time=21.878..21.878 rows=225954 loops=1)
                                       Index Cond: ((l_shipdate >= '1996-01-01'::date) AND (l_shipdate < '1996-04-01 00:00:00'::timestamp without time zone))
 Planning time: 0.646 ms
 Execution time: 483.067 ms
(28 rows)

DROP VIEW
========== query 16 ==========
SET
                                                                                         QUERY PLAN                                                                                         
--------------------------------------------------------------------------------------------------------------------------------------------------------------------------------------------
 Limit  (cost=39294.46..39294.46 rows=1 width=44) (actual time=581.324..581.324 rows=1 loops=1)
   ->  Sort  (cost=39294.46..39334.31 rows=15940 width=44) (actual time=581.323..581.323 rows=1 loops=1)
         Sort Key: (count(DISTINCT partsupp.ps_suppkey)) DESC, part.p_brand, part.p_type, part.p_size
         Sort Method: top-N heapsort  Memory: 25kB
         ->  GroupAggregate  (cost=38318.41..39214.76 rows=15940 width=44) (actual time=523.242..577.692 rows=18220 loops=1)
               Group Key: part.p_brand, part.p_type, part.p_size
               ->  Sort  (cost=38318.41..38465.80 rows=58956 width=40) (actual time=523.220..531.597 rows=117930 loops=1)
                     Sort Key: part.p_brand, part.p_type, part.p_size
                     Sort Method: quicksort  Memory: 12286kB
                     ->  Hash Join  (cost=9812.90..33646.92 rows=58956 width=40) (actual time=49.237..251.684 rows=117930 loops=1)
                           Hash Cond: (partsupp.ps_partkey = part.p_partkey)
                           ->  Index Only Scan using partsupp_pkey on partsupp  (cost=347.43..23131.43 rows=400000 width=8) (actual time=2.082..128.478 rows=799680 loops=1)
                                 Filter: (NOT (hashed SubPlan 1))
                                 Rows Removed by Filter: 320
                                 Heap Fetches: 0
                                 SubPlan 1
                                   ->  Seq Scan on supplier  (cost=0.00..347.00 rows=1 width=4) (actual time=0.084..2.053 rows=4 loops=1)
                                         Filter: ((s_comment)::text ~~ '%Customer%Complaints%'::text)
                                         Rows Removed by Filter: 9996
                           ->  Hash  (cost=9097.00..9097.00 rows=29478 width=40) (actual time=47.058..47.058 rows=29492 loops=1)
                                 Buckets: 32768  Batches: 1  Memory Usage: 2393kB
                                 ->  Seq Scan on part  (cost=0.00..9097.00 rows=29478 width=40) (actual time=0.006..41.854 rows=29492 loops=1)
                                       Filter: ((p_brand <> 'Brand#12'::bpchar) AND ((p_type)::text !~~ 'SMALL BRUSHED%'::text) AND (p_size = ANY ('{12,32,36,26,40,34,49,9}'::integer[])))
                                       Rows Removed by Filter: 170508
 Planning time: 0.653 ms
 Execution time: 581.896 ms
(26 rows)

========== query 17 ==========
SET
                                                                             QUERY PLAN                                                                             
--------------------------------------------------------------------------------------------------------------------------------------------------------------------
 Limit  (cost=217406.23..217406.24 rows=1 width=32) (actual time=3260.251..3260.251 rows=1 loops=1)
   ->  Aggregate  (cost=217406.23..217406.24 rows=1 width=32) (actual time=3260.250..3260.250 rows=1 loops=1)
         ->  Nested Loop  (cost=209551.56..217401.47 rows=1903 width=8) (actual time=3230.471..3260.142 rows=592 loops=1)
               Join Filter: (part.p_partkey = lineitem.l_partkey)
               ->  Hash Join  (cost=209551.12..216648.66 rows=190 width=40) (actual time=3230.432..3255.743 rows=208 loops=1)
                     Hash Cond: (part.p_partkey = lineitem_1.l_partkey)
                     ->  Seq Scan on part  (cost=0.00..7097.00 rows=203 width=4) (actual time=0.097..25.275 rows=208 loops=1)
                           Filter: ((p_brand = 'Brand#22'::bpchar) AND (p_container = 'LG BOX'::bpchar))
                           Rows Removed by Filter: 199792
                     ->  Hash  (cost=207208.25..207208.25 rows=187430 width=36) (actual time=3229.791..3229.791 rows=200000 loops=1)
                           Buckets: 262144  Batches: 1  Memory Usage: 11623kB
                           ->  HashAggregate  (cost=202522.50..205333.95 rows=187430 width=36) (actual time=3053.524..3196.054 rows=200000 loops=1)
                                 Group Key: lineitem_1.l_partkey
                                 ->  Seq Scan on lineitem lineitem_1  (cost=0.00..172516.00 rows=6001300 width=9) (actual time=0.035..550.025 rows=6001215 loops=1)
               ->  Index Scan using idx_lineitem_part_supp on lineitem  (cost=0.43..3.82 rows=11 width=17) (actual time=0.008..0.020 rows=3 loops=208)
                     Index Cond: (l_partkey = lineitem_1.l_partkey)
                     Filter: (l_quantity < ((0.2 * avg(lineitem_1.l_quantity))))
                     Rows Removed by Filter: 27
 Planning time: 0.681 ms
 Execution time: 3263.936 ms
(20 rows)

========== query 18 ==========
SET
                                                                                                        QUERY PLAN                                                                                                         
---------------------------------------------------------------------------------------------------------------------------------------------------------------------------------------------------------------------------
 Limit  (cost=889061.28..889061.53 rows=100 width=71) (actual time=4077.299..4077.301 rows=9 loops=1)
   ->  Sort  (cost=889061.28..893021.05 rows=1583907 width=71) (actual time=4077.298..4077.299 rows=9 loops=1)
         Sort Key: orders.o_totalprice DESC, orders.o_orderdate
         Sort Method: quicksort  Memory: 25kB
         ->  GroupAggregate  (cost=792887.59..828525.50 rows=1583907 width=71) (actual time=4077.249..4077.264 rows=9 loops=1)
               Group Key: customer.c_custkey, orders.o_orderkey
               ->  Sort  (cost=792887.59..796847.36 rows=1583907 width=44) (actual time=4077.228..4077.231 rows=63 loops=1)
                     Sort Key: customer.c_custkey, orders.o_orderkey
                     Sort Method: quicksort  Memory: 29kB
                     ->  Hash Join  (cost=370197.38..581057.32 rows=1583907 width=44) (actual time=3300.196..4077.177 rows=63 loops=1)
                           Hash Cond: (lineitem.l_orderkey = orders.o_orderkey)
                           ->  Seq Scan on lineitem  (cost=0.00..172516.00 rows=6001300 width=9) (actual time=0.007..387.815 rows=6001215 loops=1)
                           ->  Hash  (cost=365248.74..365248.74 rows=395891 width=43) (actual time=3084.102..3084.102 rows=9 loops=1)
                                 Buckets: 524288  Batches: 1  Memory Usage: 4097kB
                                 ->  Hash Join  (cost=319176.98..365248.74 rows=395891 width=43) (actual time=2828.202..3084.076 rows=9 loops=1)
                                       Hash Cond: (orders.o_custkey = customer.c_custkey)
                                       ->  Hash Join  (cost=312216.98..357249.49 rows=395891 width=24) (actual time=2770.321..3026.180 rows=9 loops=1)
                                             Hash Cond: (orders.o_orderkey = lineitem_1.l_orderkey)
                                             ->  Seq Scan on orders  (cost=0.00..41095.00 rows=1500000 width=20) (actual time=0.003..144.854 rows=1500000 loops=1)
                                             ->  Hash  (cost=307268.34..307268.34 rows=395891 width=4) (actual time=2699.156..2699.156 rows=9 loops=1)
                                                   Buckets: 524288  Batches: 1  Memory Usage: 4097kB
                                                   ->  GroupAggregate  (cost=0.43..303309.43 rows=395891 width=4) (actual time=578.551..2699.131 rows=9 loops=1)
                                                         Group Key: lineitem_1.l_orderkey
                                                         Filter: (sum(lineitem_1.l_quantity) > '313'::numeric)
                                                         Rows Removed by Filter: 1499991
                                                         ->  Index Scan using idx_lineitem_orderkey on lineitem lineitem_1  (cost=0.43..268354.29 rows=6001300 width=9) (actual time=0.015..1206.433 rows=6001215 loops=1)
                                       ->  Hash  (cost=5085.00..5085.00 rows=150000 width=23) (actual time=57.276..57.277 rows=150000 loops=1)
                                             Buckets: 262144  Batches: 1  Memory Usage: 10252kB
                                             ->  Seq Scan on customer  (cost=0.00..5085.00 rows=150000 width=23) (actual time=0.010..31.996 rows=150000 loops=1)
 Planning time: 1.246 ms
 Execution time: 4077.821 ms
(31 rows)

========== query 19 ==========
SET
                                                                                                                                                                                                                                                                                                                                                                                                                                                                                                            QUERY PLAN                                                                                                                                                                                                                                                                                                                                                                                                                                                                                                            
----------------------------------------------------------------------------------------------------------------------------------------------------------------------------------------------------------------------------------------------------------------------------------------------------------------------------------------------------------------------------------------------------------------------------------------------------------------------------------------------------------------------------------------------------------------------------------------------------------------------------------------------------------------------------------------------------------------------------------------------------------------------------------------------------------------------------------------------------------------------------------------------------------------------------------------------------------------------------------------------------------------------------------
 Limit  (cost=75033.06..75033.07 rows=1 width=32) (actual time=59.854..59.854 rows=1 loops=1)
   ->  Aggregate  (cost=75033.06..75033.07 rows=1 width=32) (actual time=59.853..59.853 rows=1 loops=1)
         ->  Nested Loop  (cost=0.43..75032.19 rows=116 width=12) (actual time=0.292..59.758 rows=111 loops=1)
               ->  Seq Scan on part  (cost=0.00..12597.00 rows=493 width=30) (actual time=0.193..44.430 rows=507 loops=1)
                     Filter: ((p_size >= 1) AND (((p_brand = 'Brand#24'::bpchar) AND (p_container = ANY ('{"SM CASE","SM BOX","SM PACK","SM PKG"}'::bpchar[])) AND (p_size <= 5)) OR ((p_brand = 'Brand#43'::bpchar) AND (p_container = ANY ('{"MED BAG","MED BOX","MED PKG","MED PACK"}'::bpchar[])) AND (p_size <= 10)) OR ((p_brand = 'Brand#44'::bpchar) AND (p_container = ANY ('{"LG CASE","LG BOX","LG PACK","LG PKG"}'::bpchar[])) AND (p_size <= 15))))
                     Rows Removed by Filter: 199493
               ->  Index Scan using idx_lineitem_part_supp on lineitem  (cost=0.43..126.63 rows=1 width=21) (actual time=0.027..0.030 rows=0 loops=507)
                     Index Cond: (l_partkey = part.p_partkey)
                     Filter: ((l_shipmode = ANY ('{AIR,"AIR REG"}'::bpchar[])) AND (l_shipinstruct = 'DELIVER IN PERSON'::bpchar) AND (((l_quantity >= '10'::numeric) AND (l_quantity <= '20'::numeric)) OR ((l_quantity >= '10'::numeric) AND (l_quantity <= '20'::numeric)) OR ((l_quantity >= '20'::numeric) AND (l_quantity <= '30'::numeric))) AND (((part.p_brand = 'Brand#24'::bpchar) AND (part.p_container = ANY ('{"SM CASE","SM BOX","SM PACK","SM PKG"}'::bpchar[])) AND (l_quantity >= '10'::numeric) AND (l_quantity <= '20'::numeric) AND (part.p_size <= 5)) OR ((part.p_brand = 'Brand#43'::bpchar) AND (part.p_container = ANY ('{"MED BAG","MED BOX","MED PKG","MED PACK"}'::bpchar[])) AND (l_quantity >= '10'::numeric) AND (l_quantity <= '20'::numeric) AND (part.p_size <= 10)) OR ((part.p_brand = 'Brand#44'::bpchar) AND (part.p_container = ANY ('{"LG CASE","LG BOX","LG PACK","LG PKG"}'::bpchar[])) AND (l_quantity >= '20'::numeric) AND (l_quantity <= '30'::numeric) AND (part.p_size <= 15))))
                     Rows Removed by Filter: 30
 Planning time: 0.869 ms
 Execution time: 59.928 ms
(12 rows)

========== query 20 ==========
SET
                                                                                          QUERY PLAN                                                                                          
----------------------------------------------------------------------------------------------------------------------------------------------------------------------------------------------
 Limit  (cost=272189.17..272189.18 rows=1 width=51) (actual time=1445.865..1445.865 rows=1 loops=1)
   ->  Sort  (cost=272189.17..272189.18 rows=1 width=51) (actual time=1445.864..1445.864 rows=1 loops=1)
         Sort Key: supplier.s_name
         Sort Method: top-N heapsort  Memory: 25kB
         ->  Nested Loop Semi Join  (cost=246222.71..272189.16 rows=1 width=51) (actual time=1259.561..1445.688 rows=196 loops=1)
               Join Filter: (supplier.s_suppkey = lineitem.l_suppkey)
               Rows Removed by Join Filter: 1914277
               ->  Nested Loop  (cost=0.00..448.31 rows=400 width=55) (actual time=0.019..1.805 rows=438 loops=1)
                     Join Filter: (supplier.s_nationkey = nation.n_nationkey)
                     Rows Removed by Join Filter: 9562
                     ->  Seq Scan on nation  (cost=0.00..1.31 rows=1 width=4) (actual time=0.006..0.008 rows=1 loops=1)
                           Filter: (n_name = 'IRAQ'::bpchar)
                           Rows Removed by Filter: 24
                     ->  Seq Scan on supplier  (cost=0.00..322.00 rows=10000 width=59) (actual time=0.008..0.675 rows=10000 loops=1)
               ->  Materialize  (cost=246222.71..271734.85 rows=1 width=8) (actual time=1.632..3.033 rows=4371 loops=438)
                     ->  Nested Loop  (cost=246222.71..271734.85 rows=1 width=8) (actual time=714.640..1256.388 rows=5898 loops=1)
                           ->  Merge Join  (cost=246222.28..268691.69 rows=4890 width=44) (actual time=714.615..1238.990 rows=5914 loops=1)
                                 Merge Cond: (lineitem.l_partkey = part.p_partkey)
                                 ->  GroupAggregate  (cost=239514.38..255872.94 rows=484148 width=40) (actual time=694.815..1189.799 rows=544645 loops=1)
                                       Group Key: lineitem.l_partkey, lineitem.l_suppkey
                                       ->  Sort  (cost=239514.38..241788.47 rows=909634 width=13) (actual time=694.800..807.721 rows=913097 loops=1)
                                             Sort Key: lineitem.l_partkey, lineitem.l_suppkey
                                             Sort Method: quicksort  Memory: 64666kB
                                             ->  Bitmap Heap Scan on lineitem  (cost=23336.18..149483.69 rows=909634 width=13) (actual time=100.716..345.280 rows=913487 loops=1)
                                                   Recheck Cond: ((l_shipdate >= '1996-01-01'::date) AND (l_shipdate < '1997-01-01 00:00:00'::timestamp without time zone))
                                                   Heap Blocks: exact=104932
                                                   ->  Bitmap Index Scan on idx_lineitem_shipdate  (cost=0.00..23108.77 rows=909634 width=0) (actual time=82.863..82.863 rows=913487 loops=1)
                                                         Index Cond: ((l_shipdate >= '1996-01-01'::date) AND (l_shipdate < '1997-01-01 00:00:00'::timestamp without time zone))
                                 ->  Sort  (cost=6707.90..6712.95 rows=2020 width=4) (actual time=19.450..19.628 rows=2187 loops=1)
                                       Sort Key: part.p_partkey
                                       Sort Method: quicksort  Memory: 199kB
                                       ->  Seq Scan on part  (cost=0.00..6597.00 rows=2020 width=4) (actual time=0.032..19.210 rows=2187 loops=1)
                                             Filter: ((p_name)::text ~~ 'olive%'::text)
                                             Rows Removed by Filter: 197813
                           ->  Index Scan using partsupp_pkey on partsupp  (cost=0.42..0.61 rows=1 width=12) (actual time=0.002..0.002 rows=1 loops=5914)
                                 Index Cond: ((ps_partkey = lineitem.l_partkey) AND (ps_suppkey = lineitem.l_suppkey))
                                 Filter: ((ps_availqty)::numeric > ((0.5 * sum(lineitem.l_quantity))))
                                 Rows Removed by Filter: 0
 Planning time: 1.296 ms
 Execution time: 1449.382 ms
(40 rows)

========== query 21 ==========
SET
                                                                                           QUERY PLAN                                                                                            
-------------------------------------------------------------------------------------------------------------------------------------------------------------------------------------------------
 Limit  (cost=282770.40..282770.41 rows=1 width=34) (actual time=2042.297..2042.308 rows=100 loops=1)
   ->  Sort  (cost=282770.40..282770.41 rows=1 width=34) (actual time=2042.297..2042.301 rows=100 loops=1)
         Sort Key: (count(*)) DESC, supplier.s_name
         Sort Method: top-N heapsort  Memory: 37kB
         ->  GroupAggregate  (cost=282770.37..282770.39 rows=1 width=34) (actual time=2041.145..2041.893 rows=421 loops=1)
               Group Key: supplier.s_name
               ->  Sort  (cost=282770.37..282770.38 rows=1 width=26) (actual time=2041.138..2041.312 rows=4227 loops=1)
                     Sort Key: supplier.s_name
                     Sort Method: quicksort  Memory: 523kB
                     ->  Nested Loop Anti Join  (cost=254.87..282770.36 rows=1 width=26) (actual time=1.044..2027.543 rows=4227 loops=1)
                           ->  Nested Loop Semi Join  (cost=254.44..282769.28 rows=1 width=34) (actual time=0.440..1882.815 rows=73962 loops=1)
                                 Join Filter: (orders.o_orderkey = l2.l_orderkey)
                                 ->  Nested Loop  (cost=254.01..236715.97 rows=39099 width=38) (actual time=0.433..1708.837 rows=76644 loops=1)
                                       ->  Hash Join  (cost=253.58..196074.62 rows=80017 width=34) (actual time=0.426..1378.667 rows=159165 loops=1)
                                             Hash Cond: (l1.l_suppkey = supplier.s_suppkey)
                                             ->  Seq Scan on lineitem l1  (cost=0.00..187519.25 rows=2000433 width=8) (actual time=0.006..1085.506 rows=3793296 loops=1)
                                                   Filter: (l_receiptdate > l_commitdate)
                                                   Rows Removed by Filter: 2207919
                                             ->  Hash  (cost=248.58..248.58 rows=400 width=30) (actual time=0.372..0.372 rows=421 loops=1)
                                                   Buckets: 1024  Batches: 1  Memory Usage: 35kB
                                                   ->  Nested Loop  (cost=11.38..248.58 rows=400 width=30) (actual time=0.053..0.315 rows=421 loops=1)
                                                         ->  Seq Scan on nation  (cost=0.00..1.31 rows=1 width=4) (actual time=0.003..0.005 rows=1 loops=1)
                                                               Filter: (n_name = 'PERU'::bpchar)
                                                               Rows Removed by Filter: 24
                                                         ->  Bitmap Heap Scan on supplier  (cost=11.38..243.27 rows=400 width=34) (actual time=0.047..0.265 rows=421 loops=1)
                                                               Recheck Cond: (s_nationkey = nation.n_nationkey)
                                                               Heap Blocks: exact=187
                                                               ->  Bitmap Index Scan on idx_supplier_nation_key  (cost=0.00..11.29 rows=400 width=0) (actual time=0.030..0.030 rows=421 loops=1)
                                                                     Index Cond: (s_nationkey = nation.n_nationkey)
                                       ->  Index Scan using orders_pkey on orders  (cost=0.43..0.51 rows=1 width=4) (actual time=0.002..0.002 rows=0 loops=159165)
                                             Index Cond: (o_orderkey = l1.l_orderkey)
                                             Filter: (o_orderstatus = 'F'::bpchar)
                                             Rows Removed by Filter: 1
                                 ->  Index Scan using idx_lineitem_orderkey on lineitem l2  (cost=0.43..0.99 rows=15 width=8) (actual time=0.002..0.002 rows=1 loops=76644)
                                       Index Cond: (l_orderkey = l1.l_orderkey)
                                       Filter: (l_suppkey <> l1.l_suppkey)
                                       Rows Removed by Filter: 0
                           ->  Index Scan using idx_lineitem_orderkey on lineitem l3  (cost=0.43..1.03 rows=5 width=8) (actual time=0.002..0.002 rows=1 loops=73962)
                                 Index Cond: (l_orderkey = l1.l_orderkey)
                                 Filter: ((l_receiptdate > l_commitdate) AND (l_suppkey <> l1.l_suppkey))
                                 Rows Removed by Filter: 1
 Planning time: 1.815 ms
 Execution time: 2042.433 ms
(43 rows)

========== query 22 ==========
SET
                                                                         QUERY PLAN                                                                          
-------------------------------------------------------------------------------------------------------------------------------------------------------------
 Limit  (cost=16425.55..16425.58 rows=1 width=72) (actual time=164.019..164.020 rows=1 loops=1)
   InitPlan 1 (returns $0)
     ->  Aggregate  (cost=7534.42..7534.43 rows=1 width=32) (actual time=72.517..72.517 rows=1 loops=1)
           ->  Seq Scan on customer customer_1  (cost=0.00..7522.50 rows=4768 width=6) (actual time=0.006..68.642 rows=38017 loops=1)
                 Filter: ((c_acctbal > 0.00) AND ("substring"((c_phone)::text, 1, 2) = ANY ('{21,29,26,34,14,15,17}'::text[])))
                 Rows Removed by Filter: 111983
   ->  GroupAggregate  (cost=8891.12..8910.97 rows=722 width=72) (actual time=164.019..164.019 rows=1 loops=1)
         Group Key: ("substring"((customer.c_phone)::text, 1, 2))
         ->  Sort  (cost=8891.12..8892.92 rows=722 width=38) (actual time=163.812..163.850 rows=952 loops=1)
               Sort Key: ("substring"((customer.c_phone)::text, 1, 2))
               Sort Method: quicksort  Memory: 492kB
               ->  Nested Loop Anti Join  (cost=0.43..8856.84 rows=722 width=38) (actual time=72.557..161.837 rows=6397 loops=1)
                     ->  Seq Scan on customer  (cost=0.00..7522.50 rows=1750 width=26) (actual time=72.540..125.217 rows=19077 loops=1)
                           Filter: ((c_acctbal > $0) AND ("substring"((c_phone)::text, 1, 2) = ANY ('{21,29,26,34,14,15,17}'::text[])))
                           Rows Removed by Filter: 130923
                     ->  Index Only Scan using idx_orders_custkey on orders  (cost=0.43..4.03 rows=17 width=4) (actual time=0.002..0.002 rows=1 loops=19077)
                           Index Cond: (o_custkey = customer.c_custkey)
                           Heap Fetches: 0
 Planning time: 0.576 ms
 Execution time: 164.109 ms
(20 rows)

