server starting
waiting for server to shut down.... done
server stopped
server starting
waiting for server to shut down.... done
server stopped
server starting
waiting for server to shut down.... done
server stopped
server starting
waiting for server to shut down.... done
server stopped
server starting
waiting for server to shut down.... done
server stopped
server starting
waiting for server to shut down.... done
server stopped
server starting
waiting for server to shut down.... done
server stopped
server starting
waiting for server to shut down.... done
server stopped
server starting
waiting for server to shut down.... done
server stopped
server starting
waiting for server to shut down.... done
server stopped
server starting
waiting for server to shut down.... done
server stopped
server starting
waiting for server to shut down.... done
server stopped
server starting
waiting for server to shut down.... done
server stopped
server starting
waiting for server to shut down.... done
server stopped
server starting
waiting for server to shut down.... done
server stopped
server starting
waiting for server to shut down.... done
server stopped
server starting
waiting for server to shut down.... done
server stopped
server starting
waiting for server to shut down.... done
server stopped
server starting
waiting for server to shut down.... done
server stopped
server starting
waiting for server to shut down.... done
server stopped
server starting
waiting for server to shut down.... done
server stopped
server starting
waiting for server to shut down.... done
server stopped
server starting
